%YAML 1.1
%TAG !u! tag:unity3d.com,2011:
--- !u!1 &1088824357353638
GameObject:
  m_ObjectHideFlags: 0
  m_CorrespondingSourceObject: {fileID: 0}
  m_PrefabInstance: {fileID: 0}
  m_PrefabAsset: {fileID: 0}
  serializedVersion: 6
  m_Component:
  - component: {fileID: 224507305204046862}
  - component: {fileID: 222670388127819014}
  - component: {fileID: 114947929046483754}
  m_Layer: 0
  m_Name: AnswerRight
  m_TagString: Untagged
  m_Icon: {fileID: 0}
  m_NavMeshLayer: 0
  m_StaticEditorFlags: 0
  m_IsActive: 1
--- !u!224 &224507305204046862
RectTransform:
  m_ObjectHideFlags: 0
  m_CorrespondingSourceObject: {fileID: 0}
  m_PrefabInstance: {fileID: 0}
  m_PrefabAsset: {fileID: 0}
  m_GameObject: {fileID: 1088824357353638}
  m_LocalRotation: {x: -0, y: -0, z: -0, w: 1}
  m_LocalPosition: {x: 0, y: 0, z: 0}
  m_LocalScale: {x: 1, y: 1, z: 1}
  m_Children: []
  m_Father: {fileID: 224275568673289112}
  m_RootOrder: 6
  m_LocalEulerAnglesHint: {x: 0, y: 0, z: 0}
  m_AnchorMin: {x: 0.5, y: 0.5}
  m_AnchorMax: {x: 0.5, y: 0.5}
  m_AnchoredPosition: {x: 4, y: 672}
  m_SizeDelta: {x: 800, y: 350}
  m_Pivot: {x: 0.5, y: 0.5}
--- !u!222 &222670388127819014
CanvasRenderer:
  m_ObjectHideFlags: 0
  m_CorrespondingSourceObject: {fileID: 0}
  m_PrefabInstance: {fileID: 0}
  m_PrefabAsset: {fileID: 0}
  m_GameObject: {fileID: 1088824357353638}
  m_CullTransparentMesh: 0
--- !u!114 &114947929046483754
MonoBehaviour:
  m_ObjectHideFlags: 0
  m_CorrespondingSourceObject: {fileID: 0}
  m_PrefabInstance: {fileID: 0}
  m_PrefabAsset: {fileID: 0}
  m_GameObject: {fileID: 1088824357353638}
  m_Enabled: 1
  m_EditorHideFlags: 0
  m_Script: {fileID: 708705254, guid: f5f67c52d1564df4a8936ccd202a3bd8, type: 3}
  m_Name: 
  m_EditorClassIdentifier: 
  m_Material: {fileID: 0}
  m_Color: {r: 0.9960785, g: 0.07058824, b: 0.47058827, a: 1}
  m_RaycastTarget: 0
  m_OnCullStateChanged:
    m_PersistentCalls:
      m_Calls: []
    m_TypeName: UnityEngine.UI.MaskableGraphic+CullStateChangedEvent, UnityEngine.UI,
      Version=1.0.0.0, Culture=neutral, PublicKeyToken=null
  m_FontData:
    m_Font: {fileID: 12800000, guid: edb2c7d7530686941817100dde2d975d, type: 3}
    m_FontSize: 50
    m_FontStyle: 0
    m_BestFit: 0
    m_MinSize: 5
    m_MaxSize: 99
    m_Alignment: 4
    m_AlignByGeometry: 0
    m_RichText: 0
    m_HorizontalOverflow: 0
    m_VerticalOverflow: 0
    m_LineSpacing: 1
  m_Text: Answer Right
--- !u!1 &1252811594609928
GameObject:
  m_ObjectHideFlags: 0
  m_CorrespondingSourceObject: {fileID: 0}
  m_PrefabInstance: {fileID: 0}
  m_PrefabAsset: {fileID: 0}
  serializedVersion: 6
  m_Component:
  - component: {fileID: 224672841774909142}
  - component: {fileID: 222906757600579344}
  - component: {fileID: 114090687538468844}
  m_Layer: 0
  m_Name: TitleText
  m_TagString: Untagged
  m_Icon: {fileID: 0}
  m_NavMeshLayer: 0
  m_StaticEditorFlags: 0
  m_IsActive: 1
--- !u!224 &224672841774909142
RectTransform:
  m_ObjectHideFlags: 0
  m_CorrespondingSourceObject: {fileID: 0}
  m_PrefabInstance: {fileID: 0}
  m_PrefabAsset: {fileID: 0}
  m_GameObject: {fileID: 1252811594609928}
  m_LocalRotation: {x: -0, y: -0, z: -0, w: 1}
  m_LocalPosition: {x: 0, y: 0, z: 0}
  m_LocalScale: {x: 1, y: 1, z: 1}
  m_Children: []
  m_Father: {fileID: 224275568673289112}
  m_RootOrder: 2
  m_LocalEulerAnglesHint: {x: 0, y: 0, z: 0}
  m_AnchorMin: {x: 0.5, y: 0.5}
  m_AnchorMax: {x: 0.5, y: 0.5}
  m_AnchoredPosition: {x: 0, y: -331}
  m_SizeDelta: {x: 800, y: 200}
  m_Pivot: {x: 0.5, y: 0.5}
--- !u!222 &222906757600579344
CanvasRenderer:
  m_ObjectHideFlags: 0
  m_CorrespondingSourceObject: {fileID: 0}
  m_PrefabInstance: {fileID: 0}
  m_PrefabAsset: {fileID: 0}
  m_GameObject: {fileID: 1252811594609928}
  m_CullTransparentMesh: 0
--- !u!114 &114090687538468844
MonoBehaviour:
  m_ObjectHideFlags: 0
  m_CorrespondingSourceObject: {fileID: 0}
  m_PrefabInstance: {fileID: 0}
  m_PrefabAsset: {fileID: 0}
  m_GameObject: {fileID: 1252811594609928}
  m_Enabled: 1
  m_EditorHideFlags: 0
  m_Script: {fileID: 708705254, guid: f5f67c52d1564df4a8936ccd202a3bd8, type: 3}
  m_Name: 
  m_EditorClassIdentifier: 
  m_Material: {fileID: 0}
  m_Color: {r: 0, g: 0, b: 0, a: 1}
  m_RaycastTarget: 0
  m_OnCullStateChanged:
    m_PersistentCalls:
      m_Calls: []
    m_TypeName: UnityEngine.UI.MaskableGraphic+CullStateChangedEvent, UnityEngine.UI,
      Version=1.0.0.0, Culture=neutral, PublicKeyToken=null
  m_FontData:
    m_Font: {fileID: 12800000, guid: edb2c7d7530686941817100dde2d975d, type: 3}
    m_FontSize: 76
    m_FontStyle: 1
    m_BestFit: 0
    m_MinSize: 1
    m_MaxSize: 111
    m_Alignment: 4
    m_AlignByGeometry: 0
    m_RichText: 0
    m_HorizontalOverflow: 0
    m_VerticalOverflow: 0
    m_LineSpacing: 1
  m_Text: "\u0412\u044B - \u043E\u0440\u0430\u0433\u0430\u043D\u0438\u0437\u0430\u0442\u043E\u0440"
--- !u!1 &1796499804054104
GameObject:
  m_ObjectHideFlags: 0
  m_CorrespondingSourceObject: {fileID: 0}
  m_PrefabInstance: {fileID: 0}
  m_PrefabAsset: {fileID: 0}
  serializedVersion: 6
  m_Component:
  - component: {fileID: 224799265262095184}
  - component: {fileID: 222075802552042382}
  - component: {fileID: 114853187802903376}
  m_Layer: 0
  m_Name: Icon
  m_TagString: Untagged
  m_Icon: {fileID: 0}
  m_NavMeshLayer: 0
  m_StaticEditorFlags: 0
  m_IsActive: 0
--- !u!224 &224799265262095184
RectTransform:
  m_ObjectHideFlags: 0
  m_CorrespondingSourceObject: {fileID: 0}
  m_PrefabInstance: {fileID: 0}
  m_PrefabAsset: {fileID: 0}
  m_GameObject: {fileID: 1796499804054104}
  m_LocalRotation: {x: -0, y: -0, z: -0, w: 1}
  m_LocalPosition: {x: 0, y: 0, z: 0}
  m_LocalScale: {x: 1, y: 1, z: 1}
  m_Children: []
  m_Father: {fileID: 224275568673289112}
  m_RootOrder: 1
  m_LocalEulerAnglesHint: {x: 0, y: 0, z: 0}
  m_AnchorMin: {x: 0.5, y: 0.5}
  m_AnchorMax: {x: 0.5, y: 0.5}
  m_AnchoredPosition: {x: 0, y: 220}
  m_SizeDelta: {x: 512, y: 512}
  m_Pivot: {x: 0.5, y: 0.5}
--- !u!222 &222075802552042382
CanvasRenderer:
  m_ObjectHideFlags: 0
  m_CorrespondingSourceObject: {fileID: 0}
  m_PrefabInstance: {fileID: 0}
  m_PrefabAsset: {fileID: 0}
  m_GameObject: {fileID: 1796499804054104}
  m_CullTransparentMesh: 0
--- !u!114 &114853187802903376
MonoBehaviour:
  m_ObjectHideFlags: 0
  m_CorrespondingSourceObject: {fileID: 0}
  m_PrefabInstance: {fileID: 0}
  m_PrefabAsset: {fileID: 0}
  m_GameObject: {fileID: 1796499804054104}
  m_Enabled: 1
  m_EditorHideFlags: 0
  m_Script: {fileID: -765806418, guid: f5f67c52d1564df4a8936ccd202a3bd8, type: 3}
  m_Name: 
  m_EditorClassIdentifier: 
  m_Material: {fileID: 0}
  m_Color: {r: 1, g: 1, b: 1, a: 1}
  m_RaycastTarget: 0
  m_OnCullStateChanged:
    m_PersistentCalls:
      m_Calls: []
    m_TypeName: UnityEngine.UI.MaskableGraphic+CullStateChangedEvent, UnityEngine.UI,
      Version=1.0.0.0, Culture=neutral, PublicKeyToken=null
  m_Sprite: {fileID: 21300000, guid: 942462fce505db945bd17b2cac9b849a, type: 3}
  m_Type: 0
  m_PreserveAspect: 1
  m_FillCenter: 1
  m_FillMethod: 4
  m_FillAmount: 1
  m_FillClockwise: 1
  m_FillOrigin: 0
  m_UseSpriteMesh: 0
--- !u!1 &1818390954452748
GameObject:
  m_ObjectHideFlags: 0
  m_CorrespondingSourceObject: {fileID: 0}
  m_PrefabInstance: {fileID: 0}
  m_PrefabAsset: {fileID: 0}
  serializedVersion: 6
  m_Component:
  - component: {fileID: 224275568673289112}
  - component: {fileID: 222784953872750012}
  - component: {fileID: 114691296766683156}
  - component: {fileID: 114858855707054174}
  - component: {fileID: 95138307080615164}
  - component: {fileID: 114425599353098012}
  - component: {fileID: 114628983651552520}
  m_Layer: 0
  m_Name: _StartCard
  m_TagString: Untagged
  m_Icon: {fileID: 0}
  m_NavMeshLayer: 0
  m_StaticEditorFlags: 0
  m_IsActive: 1
--- !u!224 &224275568673289112
RectTransform:
  m_ObjectHideFlags: 0
  m_CorrespondingSourceObject: {fileID: 0}
  m_PrefabInstance: {fileID: 0}
  m_PrefabAsset: {fileID: 0}
  m_GameObject: {fileID: 1818390954452748}
  m_LocalRotation: {x: -0, y: -0, z: -0, w: 1}
  m_LocalPosition: {x: 0, y: 0, z: 0}
  m_LocalScale: {x: 1, y: 1, z: 1}
  m_Children:
  - {fileID: 1145960043378042849}
  - {fileID: 224799265262095184}
  - {fileID: 224672841774909142}
  - {fileID: 224206319859092360}
  - {fileID: 224451856618848714}
  - {fileID: 224341532243370806}
  - {fileID: 224507305204046862}
  - {fileID: 5798552055116072940}
  - {fileID: 6814346164488008193}
  m_Father: {fileID: 0}
  m_RootOrder: 0
  m_LocalEulerAnglesHint: {x: 0, y: 0, z: 0}
  m_AnchorMin: {x: 0.5, y: 0.5}
  m_AnchorMax: {x: 0.5, y: 0.5}
  m_AnchoredPosition: {x: 0, y: -150}
  m_SizeDelta: {x: 840, y: 1240}
  m_Pivot: {x: 0.5, y: 0.5}
--- !u!222 &222784953872750012
CanvasRenderer:
  m_ObjectHideFlags: 0
  m_CorrespondingSourceObject: {fileID: 0}
  m_PrefabInstance: {fileID: 0}
  m_PrefabAsset: {fileID: 0}
  m_GameObject: {fileID: 1818390954452748}
  m_CullTransparentMesh: 0
--- !u!114 &114691296766683156
MonoBehaviour:
  m_ObjectHideFlags: 0
  m_CorrespondingSourceObject: {fileID: 0}
  m_PrefabInstance: {fileID: 0}
  m_PrefabAsset: {fileID: 0}
  m_GameObject: {fileID: 1818390954452748}
  m_Enabled: 1
  m_EditorHideFlags: 0
  m_Script: {fileID: -765806418, guid: f5f67c52d1564df4a8936ccd202a3bd8, type: 3}
  m_Name: 
  m_EditorClassIdentifier: 
  m_Material: {fileID: 0}
  m_Color: {r: 1, g: 1, b: 1, a: 1}
  m_RaycastTarget: 0
  m_OnCullStateChanged:
    m_PersistentCalls:
      m_Calls: []
    m_TypeName: UnityEngine.UI.MaskableGraphic+CullStateChangedEvent, UnityEngine.UI,
      Version=1.0.0.0, Culture=neutral, PublicKeyToken=null
  m_Sprite: {fileID: 21300000, guid: 29e4fbffb4ff5d34a9b06b805d5ee3eb, type: 3}
  m_Type: 1
  m_PreserveAspect: 1
  m_FillCenter: 1
  m_FillMethod: 4
  m_FillAmount: 1
  m_FillClockwise: 1
  m_FillOrigin: 0
  m_UseSpriteMesh: 0
--- !u!114 &114858855707054174
MonoBehaviour:
  m_ObjectHideFlags: 0
  m_CorrespondingSourceObject: {fileID: 0}
  m_PrefabInstance: {fileID: 0}
  m_PrefabAsset: {fileID: 0}
  m_GameObject: {fileID: 1818390954452748}
  m_Enabled: 1
  m_EditorHideFlags: 0
  m_Script: {fileID: -1200242548, guid: f70555f144d8491a825f0804e09c671c, type: 3}
  m_Name: 
  m_EditorClassIdentifier: 
  m_ShowMaskGraphic: 1
--- !u!95 &95138307080615164
Animator:
  serializedVersion: 3
  m_ObjectHideFlags: 0
  m_CorrespondingSourceObject: {fileID: 0}
  m_PrefabInstance: {fileID: 0}
  m_PrefabAsset: {fileID: 0}
  m_GameObject: {fileID: 1818390954452748}
  m_Enabled: 1
  m_Avatar: {fileID: 0}
  m_Controller: {fileID: 9100000, guid: feb10c3fc3c8ad44ea62813b816c3bf3, type: 2}
  m_CullingMode: 0
  m_UpdateMode: 0
  m_ApplyRootMotion: 0
  m_LinearVelocityBlending: 0
  m_WarningMessage: 
  m_HasTransformHierarchy: 1
  m_AllowConstantClipSamplingOptimization: 1
  m_KeepAnimatorControllerStateOnDisable: 0
--- !u!114 &114425599353098012
MonoBehaviour:
  m_ObjectHideFlags: 0
  m_CorrespondingSourceObject: {fileID: 0}
  m_PrefabInstance: {fileID: 0}
  m_PrefabAsset: {fileID: 0}
  m_GameObject: {fileID: 1818390954452748}
  m_Enabled: 1
  m_EditorHideFlags: 0
  m_Script: {fileID: 11500000, guid: 1a8ba00dea80d994a87d9aaa52441579, type: 3}
  m_Name: 
  m_EditorClassIdentifier: 
  textFields:
    titleText:
      textContent: "\u0412\u044B - \u043E\u0440\u0433\u0430\u043D\u0438\u0437\u0430\u0442\u043E\u0440!"
      textField: {fileID: 114090687538468844}
    questionText:
      textContent: "\u0414\u0430 \u043F\u0443\u0441\u0442\u044C \u0425\u0430\u043A\u0430\u0442\u043E\u043D
        \u043F\u0440\u043E\u0439\u0434\u0435\u0442 \u0443\u0441\u043F\u0435\u0448\u043D\u043E.
        \u0412\u044B \u0433\u043E\u0442\u043E\u0432\u044B?"
      textField: {fileID: 114309495523116190}
    answerLeft:
      textContent: "\u041D\u0435\u0442, \u043D\u043E \u0440\u0430\u0431\u043E\u0442\u0430
        \u0435\u0441\u0442\u044C \u0440\u0430\u0431\u043E\u0442\u0430"
      textField: {fileID: 114616901005016922}
    answerRight:
      textContent: "\u0414\u0430!"
      textField: {fileID: 114947929046483754}
    answerUp:
      textContent: 
      textField: {fileID: 0}
    answerDown:
      textContent: 
      textField: {fileID: 0}
    additionalTexts: []
  isHighPriorityCard: 1
  isDrawable: 1
  cardPropability: 1
  maxDraws: 1
  redrawBlockCnt: 0
  conditions:
  - type: 0
    value: 4
    valueMin: 0
    valueMax: 0
    compareType: 0
    rValue: 0
    itemCompareType: 0
    item: {fileID: 0}
    itemCmpValue: 1
    gamedictionary_key: 
    gamedictionary_comparer: 
  Results:
    resultLeft:
      resultType: 0
      modifiers:
        valueChanges: []
        extras: []
        followUpCard: {fileID: 1818390954452748, guid: f51ea47ae9eefed4baf33b644bd68fe0,
          type: 3}
        followUpDelay:
          min: 0
          max: 0
      conditions: []
      modifiersTrue:
        valueChanges: []
        extras: []
        followUpCard: {fileID: 0}
        followUpDelay:
          min: 0
          max: 0
      modifiersFalse:
        valueChanges: []
        extras: []
        followUpCard: {fileID: 0}
        followUpDelay:
          min: 0
          max: 0
      randomModifiers: []
    resultRight:
      resultType: 0
      modifiers:
        valueChanges: []
        extras: []
        followUpCard: {fileID: 1818390954452748, guid: cef47ad4dcbdb3946ba4bb24db02bf05,
          type: 3}
        followUpDelay:
          min: 0
          max: 0
      conditions:
      - type: 0
        value: 0
        valueMin: 0
        valueMax: 0
        compareType: 0
        rValue: 0
        itemCompareType: 0
        item: {fileID: 0}
        itemCmpValue: 1
        gamedictionary_key: 
        gamedictionary_comparer: 
      modifiersTrue:
        valueChanges: []
        extras: []
        followUpCard: {fileID: 0}
        followUpDelay:
          min: 0
          max: 0
      modifiersFalse:
        valueChanges: []
        extras: []
        followUpCard: {fileID: 0}
        followUpDelay:
          min: 0
          max: 0
      randomModifiers:
      - valueChanges: []
        extras: []
        followUpCard: {fileID: 0}
        followUpDelay:
          min: 0
          max: 0
      - valueChanges: []
        extras: []
        followUpCard: {fileID: 0}
        followUpDelay:
          min: 0
          max: 0
      - valueChanges: []
        extras: []
        followUpCard: {fileID: 0}
        followUpDelay:
          min: 0
          max: 0
    resultUp:
      resultType: 0
      modifiers:
        valueChanges: []
        extras: []
        followUpCard: {fileID: 0}
        followUpDelay:
          min: 0
          max: 0
      conditions: []
      modifiersTrue:
        valueChanges: []
        extras: []
        followUpCard: {fileID: 0}
        followUpDelay:
          min: 0
          max: 0
      modifiersFalse:
        valueChanges: []
        extras: []
        followUpCard: {fileID: 0}
        followUpDelay:
          min: 0
          max: 0
      randomModifiers: []
    resultDown:
      resultType: 0
      modifiers:
        valueChanges: []
        extras: []
        followUpCard: {fileID: 0}
        followUpDelay:
          min: 0
          max: 0
      conditions: []
      modifiersTrue:
        valueChanges: []
        extras: []
        followUpCard: {fileID: 0}
        followUpDelay:
          min: 0
          max: 0
      modifiersFalse:
        valueChanges: []
        extras: []
        followUpCard: {fileID: 0}
        followUpDelay:
          min: 0
          max: 0
      randomModifiers: []
    additional_choice_0:
      resultType: 0
      modifiers:
        valueChanges: []
        extras: []
        followUpCard: {fileID: 0}
        followUpDelay:
          min: 0
          max: 0
      conditions: []
      modifiersTrue:
        valueChanges: []
        extras: []
        followUpCard: {fileID: 0}
        followUpDelay:
          min: 0
          max: 0
      modifiersFalse:
        valueChanges: []
        extras: []
        followUpCard: {fileID: 0}
        followUpDelay:
          min: 0
          max: 0
      randomModifiers: []
    additional_choice_1:
      resultType: 0
      modifiers:
        valueChanges: []
        extras: []
        followUpCard: {fileID: 0}
        followUpDelay:
          min: 0
          max: 0
      conditions: []
      modifiersTrue:
        valueChanges: []
        extras: []
        followUpCard: {fileID: 0}
        followUpDelay:
          min: 0
          max: 0
      modifiersFalse:
        valueChanges: []
        extras: []
        followUpCard: {fileID: 0}
        followUpDelay:
          min: 0
          max: 0
      randomModifiers: []
  swipeType: 0
  additionalChoices: 0
  changeExtrasOnCardDespawn:
  - targetType: 3
    itemChange:
      modificationType: 0
      item: {fileID: 0}
      itemAmountAdd: 0
      itemAmountSet: 0
    dictionaryChange:
      dictionaryAction: 0
      key: 
      value: 
    questChange:
      questAction: 0
      quest: {fileID: 0}
    historyEvent:
      newHistoryEvent: {fileID: 11400000, guid: 8090ddf6752b35f4598ece2fd9a9efc6,
        type: 2}
      additionalHistoryText: 
    newGameLog:
      subLogSelection: 0
      text: 
  - targetType: 4
    itemChange:
      modificationType: 0
      item: {fileID: 0}
      itemAmountAdd: 0
      itemAmountSet: 0
    dictionaryChange:
      dictionaryAction: 0
      key: 
      value: 
    questChange:
      questAction: 0
      quest: {fileID: 0}
    historyEvent:
      newHistoryEvent: {fileID: 11400000, guid: 8090ddf6752b35f4598ece2fd9a9efc6,
        type: 2}
      additionalHistoryText: 
    newGameLog:
      subLogSelection: 0
      text: You became King. Everyone was excited to see how you will rule the kingdom.
  changeValueOnCardDespawn:
  - modificationType: 0
    modifier: 4
    valueAdd: 1
    valueSet: 0
    rndRangeAdd:
      min: 0
      max: 100
    rndRangeSet:
      min: 0
      max: 100
  OnCardSpawn:
    m_PersistentCalls:
      m_Calls: []
    m_TypeName: EventScript+mEvent, Assembly-CSharp, Version=0.0.0.0, Culture=neutral,
      PublicKeyToken=null
  OnCardDespawn:
    m_PersistentCalls:
      m_Calls: []
    m_TypeName: EventScript+mEvent, Assembly-CSharp, Version=0.0.0.0, Culture=neutral,
      PublicKeyToken=null
  OnSwipeLeft:
    m_PersistentCalls:
      m_Calls: []
    m_TypeName: EventScript+mEvent, Assembly-CSharp, Version=0.0.0.0, Culture=neutral,
      PublicKeyToken=null
  OnSwipeRight:
    m_PersistentCalls:
      m_Calls: []
    m_TypeName: EventScript+mEvent, Assembly-CSharp, Version=0.0.0.0, Culture=neutral,
      PublicKeyToken=null
  OnSwipeUp:
    m_PersistentCalls:
      m_Calls: []
    m_TypeName: EventScript+mEvent, Assembly-CSharp, Version=0.0.0.0, Culture=neutral,
      PublicKeyToken=null
  OnSwipeDown:
    m_PersistentCalls:
      m_Calls: []
    m_TypeName: EventScript+mEvent, Assembly-CSharp, Version=0.0.0.0, Culture=neutral,
      PublicKeyToken=null
  OnAdditionalChoice_0:
    m_PersistentCalls:
      m_Calls: []
    m_TypeName: EventScript+mEvent, Assembly-CSharp, Version=0.0.0.0, Culture=neutral,
      PublicKeyToken=null
  OnAdditionalChoice_1:
    m_PersistentCalls:
      m_Calls: []
    m_TypeName: EventScript+mEvent, Assembly-CSharp, Version=0.0.0.0, Culture=neutral,
      PublicKeyToken=null
--- !u!114 &114628983651552520
MonoBehaviour:
  m_ObjectHideFlags: 0
  m_CorrespondingSourceObject: {fileID: 0}
  m_PrefabInstance: {fileID: 0}
  m_PrefabAsset: {fileID: 0}
  m_GameObject: {fileID: 1818390954452748}
  m_Enabled: 1
  m_EditorHideFlags: 0
  m_Script: {fileID: 11500000, guid: 4f042d6af56c08a4e889374df48d1c89, type: 3}
  m_Name: 
  m_EditorClassIdentifier: 
  style: {fileID: 11400000, guid: 2ce901ddd5004ec438a01a1f003a768c, type: 2}
  cardImages:
    color: {r: 0.9333334, g: 0.6784314, b: 0.054901965, a: 1}
    front: {fileID: 0}
    back: {fileID: 0}
  iconImage: {fileID: 114853187802903376}
--- !u!1 &1865880124925572
GameObject:
  m_ObjectHideFlags: 0
  m_CorrespondingSourceObject: {fileID: 0}
  m_PrefabInstance: {fileID: 0}
  m_PrefabAsset: {fileID: 0}
  serializedVersion: 6
  m_Component:
  - component: {fileID: 224206319859092360}
  - component: {fileID: 222561243514118444}
  - component: {fileID: 114309495523116190}
  m_Layer: 0
  m_Name: QuestionText
  m_TagString: Untagged
  m_Icon: {fileID: 0}
  m_NavMeshLayer: 0
  m_StaticEditorFlags: 0
  m_IsActive: 1
--- !u!224 &224206319859092360
RectTransform:
  m_ObjectHideFlags: 0
  m_CorrespondingSourceObject: {fileID: 0}
  m_PrefabInstance: {fileID: 0}
  m_PrefabAsset: {fileID: 0}
  m_GameObject: {fileID: 1865880124925572}
  m_LocalRotation: {x: -0, y: -0, z: -0, w: 1}
  m_LocalPosition: {x: 0, y: 0, z: 0}
  m_LocalScale: {x: 1, y: 1, z: 1}
  m_Children: []
  m_Father: {fileID: 224275568673289112}
  m_RootOrder: 3
  m_LocalEulerAnglesHint: {x: 0, y: 0, z: 0}
  m_AnchorMin: {x: 0.5, y: 0.5}
  m_AnchorMax: {x: 0.5, y: 0.5}
  m_AnchoredPosition: {x: 0, y: -474}
  m_SizeDelta: {x: 800, y: 200}
  m_Pivot: {x: 0.5, y: 0.5}
--- !u!222 &222561243514118444
CanvasRenderer:
  m_ObjectHideFlags: 0
  m_CorrespondingSourceObject: {fileID: 0}
  m_PrefabInstance: {fileID: 0}
  m_PrefabAsset: {fileID: 0}
  m_GameObject: {fileID: 1865880124925572}
  m_CullTransparentMesh: 0
--- !u!114 &114309495523116190
MonoBehaviour:
  m_ObjectHideFlags: 0
  m_CorrespondingSourceObject: {fileID: 0}
  m_PrefabInstance: {fileID: 0}
  m_PrefabAsset: {fileID: 0}
  m_GameObject: {fileID: 1865880124925572}
  m_Enabled: 1
  m_EditorHideFlags: 0
  m_Script: {fileID: 708705254, guid: f5f67c52d1564df4a8936ccd202a3bd8, type: 3}
  m_Name: 
  m_EditorClassIdentifier: 
  m_Material: {fileID: 0}
  m_Color: {r: 0, g: 0, b: 0, a: 1}
  m_RaycastTarget: 0
  m_OnCullStateChanged:
    m_PersistentCalls:
      m_Calls: []
    m_TypeName: UnityEngine.UI.MaskableGraphic+CullStateChangedEvent, UnityEngine.UI,
      Version=1.0.0.0, Culture=neutral, PublicKeyToken=null
  m_FontData:
    m_Font: {fileID: 12800000, guid: edb2c7d7530686941817100dde2d975d, type: 3}
    m_FontSize: 50
    m_FontStyle: 0
    m_BestFit: 0
    m_MinSize: 5
    m_MaxSize: 99
    m_Alignment: 4
    m_AlignByGeometry: 0
    m_RichText: 0
    m_HorizontalOverflow: 0
    m_VerticalOverflow: 0
    m_LineSpacing: 1
  m_Text: question text
--- !u!1 &1871922396327198
GameObject:
  m_ObjectHideFlags: 0
  m_CorrespondingSourceObject: {fileID: 0}
  m_PrefabInstance: {fileID: 0}
  m_PrefabAsset: {fileID: 0}
  serializedVersion: 6
  m_Component:
  - component: {fileID: 224451856618848714}
  - component: {fileID: 222980926834145996}
  - component: {fileID: 114455580181653028}
  m_Layer: 0
  m_Name: AnswersBack
  m_TagString: Untagged
  m_Icon: {fileID: 0}
  m_NavMeshLayer: 0
  m_StaticEditorFlags: 0
  m_IsActive: 0
--- !u!224 &224451856618848714
RectTransform:
  m_ObjectHideFlags: 0
  m_CorrespondingSourceObject: {fileID: 0}
  m_PrefabInstance: {fileID: 0}
  m_PrefabAsset: {fileID: 0}
  m_GameObject: {fileID: 1871922396327198}
  m_LocalRotation: {x: 0, y: 0, z: 0, w: 1}
  m_LocalPosition: {x: 0, y: 0, z: 0}
  m_LocalScale: {x: 1, y: 1, z: 1}
  m_Children: []
  m_Father: {fileID: 224275568673289112}
  m_RootOrder: 4
  m_LocalEulerAnglesHint: {x: 0, y: 0, z: 0}
  m_AnchorMin: {x: 0.5, y: 0.5}
  m_AnchorMax: {x: 0.5, y: 0.5}
  m_AnchoredPosition: {x: 0, y: 919}
  m_SizeDelta: {x: 1500, y: 600}
  m_Pivot: {x: 0.5, y: 0.5}
--- !u!222 &222980926834145996
CanvasRenderer:
  m_ObjectHideFlags: 0
  m_CorrespondingSourceObject: {fileID: 0}
  m_PrefabInstance: {fileID: 0}
  m_PrefabAsset: {fileID: 0}
  m_GameObject: {fileID: 1871922396327198}
  m_CullTransparentMesh: 0
--- !u!114 &114455580181653028
MonoBehaviour:
  m_ObjectHideFlags: 0
  m_CorrespondingSourceObject: {fileID: 0}
  m_PrefabInstance: {fileID: 0}
  m_PrefabAsset: {fileID: 0}
  m_GameObject: {fileID: 1871922396327198}
  m_Enabled: 1
  m_EditorHideFlags: 0
  m_Script: {fileID: -765806418, guid: f70555f144d8491a825f0804e09c671c, type: 3}
  m_Name: 
  m_EditorClassIdentifier: 
  m_Material: {fileID: 0}
  m_Color: {r: 1, g: 1, b: 1, a: 0.15686275}
  m_RaycastTarget: 0
  m_OnCullStateChanged:
    m_PersistentCalls:
      m_Calls: []
    m_TypeName: UnityEngine.UI.MaskableGraphic+CullStateChangedEvent, UnityEngine.UI,
      Version=1.0.0.0, Culture=neutral, PublicKeyToken=null
  m_Sprite: {fileID: 0}
  m_Type: 0
  m_PreserveAspect: 0
  m_FillCenter: 1
  m_FillMethod: 4
  m_FillAmount: 1
  m_FillClockwise: 1
  m_FillOrigin: 0
  m_UseSpriteMesh: 0
--- !u!1 &1910952791357650
GameObject:
  m_ObjectHideFlags: 0
  m_CorrespondingSourceObject: {fileID: 0}
  m_PrefabInstance: {fileID: 0}
  m_PrefabAsset: {fileID: 0}
  serializedVersion: 6
  m_Component:
  - component: {fileID: 224341532243370806}
  - component: {fileID: 222101767054053918}
  - component: {fileID: 114616901005016922}
  m_Layer: 0
  m_Name: AnswerLeft
  m_TagString: Untagged
  m_Icon: {fileID: 0}
  m_NavMeshLayer: 0
  m_StaticEditorFlags: 0
  m_IsActive: 1
--- !u!224 &224341532243370806
RectTransform:
  m_ObjectHideFlags: 0
  m_CorrespondingSourceObject: {fileID: 0}
  m_PrefabInstance: {fileID: 0}
  m_PrefabAsset: {fileID: 0}
  m_GameObject: {fileID: 1910952791357650}
  m_LocalRotation: {x: -0, y: -0, z: -0, w: 1}
  m_LocalPosition: {x: 0, y: 0, z: 0}
  m_LocalScale: {x: 1, y: 1, z: 1}
  m_Children: []
  m_Father: {fileID: 224275568673289112}
  m_RootOrder: 5
  m_LocalEulerAnglesHint: {x: 0, y: 0, z: 0}
  m_AnchorMin: {x: 0.5, y: 0.5}
  m_AnchorMax: {x: 0.5, y: 0.5}
  m_AnchoredPosition: {x: -0, y: 672}
  m_SizeDelta: {x: 800, y: 350}
  m_Pivot: {x: 0.5, y: 0.5}
--- !u!222 &222101767054053918
CanvasRenderer:
  m_ObjectHideFlags: 0
  m_CorrespondingSourceObject: {fileID: 0}
  m_PrefabInstance: {fileID: 0}
  m_PrefabAsset: {fileID: 0}
  m_GameObject: {fileID: 1910952791357650}
  m_CullTransparentMesh: 0
--- !u!114 &114616901005016922
MonoBehaviour:
  m_ObjectHideFlags: 0
  m_CorrespondingSourceObject: {fileID: 0}
  m_PrefabInstance: {fileID: 0}
  m_PrefabAsset: {fileID: 0}
  m_GameObject: {fileID: 1910952791357650}
  m_Enabled: 1
  m_EditorHideFlags: 0
  m_Script: {fileID: 708705254, guid: f5f67c52d1564df4a8936ccd202a3bd8, type: 3}
  m_Name: 
  m_EditorClassIdentifier: 
  m_Material: {fileID: 0}
  m_Color: {r: 1, g: 0.07058824, b: 0.47058827, a: 1}
  m_RaycastTarget: 0
  m_OnCullStateChanged:
    m_PersistentCalls:
      m_Calls: []
    m_TypeName: UnityEngine.UI.MaskableGraphic+CullStateChangedEvent, UnityEngine.UI,
      Version=1.0.0.0, Culture=neutral, PublicKeyToken=null
  m_FontData:
    m_Font: {fileID: 12800000, guid: edb2c7d7530686941817100dde2d975d, type: 3}
    m_FontSize: 50
    m_FontStyle: 0
    m_BestFit: 0
    m_MinSize: 5
    m_MaxSize: 99
    m_Alignment: 4
    m_AlignByGeometry: 0
    m_RichText: 0
    m_HorizontalOverflow: 0
    m_VerticalOverflow: 0
    m_LineSpacing: 1
  m_Text: Answer Left
--- !u!1 &3284008602966474243
GameObject:
  m_ObjectHideFlags: 0
  m_CorrespondingSourceObject: {fileID: 0}
  m_PrefabInstance: {fileID: 0}
  m_PrefabAsset: {fileID: 0}
  serializedVersion: 6
  m_Component:
  - component: {fileID: 6814346164488008193}
  - component: {fileID: 6888213024125509426}
  - component: {fileID: 913158018074406556}
  m_Layer: 0
  m_Name: Icon2
  m_TagString: Untagged
  m_Icon: {fileID: 0}
  m_NavMeshLayer: 0
  m_StaticEditorFlags: 0
  m_IsActive: 1
--- !u!224 &6814346164488008193
RectTransform:
  m_ObjectHideFlags: 0
  m_CorrespondingSourceObject: {fileID: 0}
  m_PrefabInstance: {fileID: 0}
  m_PrefabAsset: {fileID: 0}
  m_GameObject: {fileID: 3284008602966474243}
  m_LocalRotation: {x: 0, y: 0, z: 0, w: 1}
  m_LocalPosition: {x: 0, y: 0, z: 0}
  m_LocalScale: {x: 1, y: 1, z: 1}
  m_Children: []
  m_Father: {fileID: 224275568673289112}
  m_RootOrder: 8
  m_LocalEulerAnglesHint: {x: 0, y: 0, z: 0}
  m_AnchorMin: {x: 0.5, y: 0.5}
  m_AnchorMax: {x: 0.5, y: 0.5}
  m_AnchoredPosition: {x: -3, y: 66}
  m_SizeDelta: {x: 256, y: 256}
  m_Pivot: {x: 0.5, y: 0.5}
--- !u!222 &6888213024125509426
CanvasRenderer:
  m_ObjectHideFlags: 0
  m_CorrespondingSourceObject: {fileID: 0}
  m_PrefabInstance: {fileID: 0}
  m_PrefabAsset: {fileID: 0}
  m_GameObject: {fileID: 3284008602966474243}
  m_CullTransparentMesh: 0
--- !u!114 &913158018074406556
MonoBehaviour:
  m_ObjectHideFlags: 0
  m_CorrespondingSourceObject: {fileID: 0}
  m_PrefabInstance: {fileID: 0}
  m_PrefabAsset: {fileID: 0}
  m_GameObject: {fileID: 3284008602966474243}
  m_Enabled: 1
  m_EditorHideFlags: 0
  m_Script: {fileID: -765806418, guid: f70555f144d8491a825f0804e09c671c, type: 3}
  m_Name: 
  m_EditorClassIdentifier: 
  m_Material: {fileID: 0}
  m_Color: {r: 1, g: 1, b: 1, a: 1}
  m_RaycastTarget: 1
  m_OnCullStateChanged:
    m_PersistentCalls:
      m_Calls: []
    m_TypeName: UnityEngine.UI.MaskableGraphic+CullStateChangedEvent, UnityEngine.UI,
      Version=1.0.0.0, Culture=neutral, PublicKeyToken=null
  m_Sprite: {fileID: 21300000, guid: d928cfb858c14b04db690c00f131462d, type: 3}
  m_Type: 0
  m_PreserveAspect: 0
  m_FillCenter: 1
  m_FillMethod: 4
  m_FillAmount: 1
  m_FillClockwise: 1
  m_FillOrigin: 0
  m_UseSpriteMesh: 0
--- !u!1 &7064105008534529421
GameObject:
  m_ObjectHideFlags: 0
  m_CorrespondingSourceObject: {fileID: 0}
  m_PrefabInstance: {fileID: 0}
  m_PrefabAsset: {fileID: 0}
  serializedVersion: 6
  m_Component:
  - component: {fileID: 1145960043378042849}
  - component: {fileID: 9000750661578821249}
  - component: {fileID: 4834445359917491884}
  m_Layer: 0
  m_Name: Qvadrat
  m_TagString: Untagged
  m_Icon: {fileID: 0}
  m_NavMeshLayer: 0
  m_StaticEditorFlags: 0
  m_IsActive: 1
--- !u!224 &1145960043378042849
RectTransform:
  m_ObjectHideFlags: 0
  m_CorrespondingSourceObject: {fileID: 0}
  m_PrefabInstance: {fileID: 0}
  m_PrefabAsset: {fileID: 0}
  m_GameObject: {fileID: 7064105008534529421}
  m_LocalRotation: {x: 0, y: 0, z: 0, w: 1}
  m_LocalPosition: {x: 0, y: 0, z: 0}
  m_LocalScale: {x: 1, y: 1, z: 1}
  m_Children: []
  m_Father: {fileID: 224275568673289112}
  m_RootOrder: 0
  m_LocalEulerAnglesHint: {x: 0, y: 0, z: 0}
  m_AnchorMin: {x: 0.5, y: 0.5}
  m_AnchorMax: {x: 0.5, y: 0.5}
  m_AnchoredPosition: {x: -0.1, y: 74.4}
  m_SizeDelta: {x: 750.2, y: 610.9}
  m_Pivot: {x: 0.5, y: 0.5}
--- !u!222 &9000750661578821249
CanvasRenderer:
  m_ObjectHideFlags: 0
  m_CorrespondingSourceObject: {fileID: 0}
  m_PrefabInstance: {fileID: 0}
  m_PrefabAsset: {fileID: 0}
  m_GameObject: {fileID: 7064105008534529421}
  m_CullTransparentMesh: 0
--- !u!114 &4834445359917491884
MonoBehaviour:
  m_ObjectHideFlags: 0
  m_CorrespondingSourceObject: {fileID: 0}
  m_PrefabInstance: {fileID: 0}
  m_PrefabAsset: {fileID: 0}
  m_GameObject: {fileID: 7064105008534529421}
  m_Enabled: 1
  m_EditorHideFlags: 0
  m_Script: {fileID: -765806418, guid: f70555f144d8491a825f0804e09c671c, type: 3}
  m_Name: 
  m_EditorClassIdentifier: 
  m_Material: {fileID: 0}
  m_Color: {r: 0.32548058, g: 0.18632075, b: 0.5, a: 1}
  m_RaycastTarget: 1
  m_OnCullStateChanged:
    m_PersistentCalls:
      m_Calls: []
    m_TypeName: UnityEngine.UI.MaskableGraphic+CullStateChangedEvent, UnityEngine.UI,
      Version=1.0.0.0, Culture=neutral, PublicKeyToken=null
  m_Sprite: {fileID: 21300000, guid: 29e4fbffb4ff5d34a9b06b805d5ee3eb, type: 3}
  m_Type: 1
  m_PreserveAspect: 0
  m_FillCenter: 1
  m_FillMethod: 4
  m_FillAmount: 1
  m_FillClockwise: 1
  m_FillOrigin: 0
  m_UseSpriteMesh: 0
--- !u!1 &9185572583681437230
GameObject:
  m_ObjectHideFlags: 0
  m_CorrespondingSourceObject: {fileID: 0}
  m_PrefabInstance: {fileID: 0}
  m_PrefabAsset: {fileID: 0}
  serializedVersion: 6
  m_Component:
  - component: {fileID: 5798552055116072940}
  - component: {fileID: 8262327510074882109}
  - component: {fileID: 5087116166129627755}
  - component: {fileID: 840119154675649887}
  m_Layer: 0
  m_Name: QuestsPanel
  m_TagString: Untagged
  m_Icon: {fileID: 0}
  m_NavMeshLayer: 0
  m_StaticEditorFlags: 0
  m_IsActive: 0
--- !u!224 &5798552055116072940
RectTransform:
  m_ObjectHideFlags: 0
  m_CorrespondingSourceObject: {fileID: 0}
  m_PrefabInstance: {fileID: 0}
  m_PrefabAsset: {fileID: 0}
  m_GameObject: {fileID: 9185572583681437230}
  m_LocalRotation: {x: 0, y: 0, z: 0, w: 1}
  m_LocalPosition: {x: 0, y: 0, z: 0}
  m_LocalScale: {x: 1, y: 1, z: 1}
  m_Children: []
  m_Father: {fileID: 224275568673289112}
  m_RootOrder: 7
  m_LocalEulerAnglesHint: {x: 0, y: 0, z: 0}
  m_AnchorMin: {x: 0.5, y: 0.5}
  m_AnchorMax: {x: 0.5, y: 0.5}
  m_AnchoredPosition: {x: 0, y: -452}
  m_SizeDelta: {x: 700, y: 250}
  m_Pivot: {x: 0.5, y: 0.5}
--- !u!222 &8262327510074882109
CanvasRenderer:
  m_ObjectHideFlags: 0
  m_CorrespondingSourceObject: {fileID: 0}
  m_PrefabInstance: {fileID: 0}
  m_PrefabAsset: {fileID: 0}
  m_GameObject: {fileID: 9185572583681437230}
  m_CullTransparentMesh: 0
--- !u!114 &5087116166129627755
MonoBehaviour:
  m_ObjectHideFlags: 0
  m_CorrespondingSourceObject: {fileID: 0}
  m_PrefabInstance: {fileID: 0}
  m_PrefabAsset: {fileID: 0}
  m_GameObject: {fileID: 9185572583681437230}
  m_Enabled: 1
  m_EditorHideFlags: 0
  m_Script: {fileID: 11500000, guid: 457ff8bc90164fa4daaf7b5947a63f28, type: 3}
  m_Name: 
  m_EditorClassIdentifier: 
  UI_OpenTemplate: {fileID: 0}
  UI_ActiveTemplate: {fileID: 3517779973420167988, guid: 0daf8e19f461d7f44820ce80f4797399,
    type: 3}
  UI_CompletedTemplate: {fileID: 0}
  questNumberDisplay:
    completedQuestsText: {fileID: 0}
    overallQuestText: {fileID: 0}
    combinedTexts: {fileID: 0}
  questDisplayFilters: 02000000
  listElements: []
--- !u!114 &840119154675649887
MonoBehaviour:
  m_ObjectHideFlags: 0
  m_CorrespondingSourceObject: {fileID: 0}
  m_PrefabInstance: {fileID: 0}
  m_PrefabAsset: {fileID: 0}
  m_GameObject: {fileID: 9185572583681437230}
  m_Enabled: 1
  m_EditorHideFlags: 0
  m_Script: {fileID: 1297475563, guid: f70555f144d8491a825f0804e09c671c, type: 3}
  m_Name: 
  m_EditorClassIdentifier: 
  m_Padding:
    m_Left: 0
    m_Right: 0
    m_Top: 12
    m_Bottom: 0
  m_ChildAlignment: 0
  m_Spacing: 5
  m_ChildForceExpandWidth: 0
  m_ChildForceExpandHeight: 0
  m_ChildControlWidth: 0
  m_ChildControlHeight: 0
  m_ChildScaleWidth: 0
  m_ChildScaleHeight: 0
